Id,Amount,Category,Date
11,980.71,debit,2021-08-20 23:08:06
12,332.35,credit,2021-04-23 23:04:17
13,67.2,debit,2021-07-05 21:07:27
14,664.26,debit,2020-04-22 05:04:41
17,392.12,debit,2020-05-26 01:05:30
15,460.37,credit,2020-07-02 04:07:16
16,559.09,debit,2020-03-02 13:03:03
18,605.55,credit,2021-04-29 22:04:28
19,351.03,debit,2020-01-21 08:01:37
20,11.91,credit,2021-05-30 07:05:31
